Text Mining in R
…
class: center, middle, inverse

# Word frequencies

---
# Most frequent words

```r
library(ggplot2, verbose = FALSE)

metwords %>% count(word, sort = TRUE)
```

```
## # A tibble: 2,153 x 2
##    word         n
##    <chr>    <int>
##  1 gregor     199
##  2 gregor's    99
##  3 father      96
##  4 sister      96
##  5 door        87
##  6 mother      82
##  7 time        59
##  8 head        38
##  9 chief       37
## 10 clerk       34
## # … with 2,143 more rows
```
…
---
# N-grams

.pull-left[

```r
# Bi-grams
metbi <- metwords %>%
 unnest_tokens(bigram, word, token = "ngrams", n = 2)
metbi %>% count(bigram, sort = TRUE)
```

```
## # A tibble: 5,899 x 2
##    bigram              n
##    <chr>           <int>
##  1 chief clerk        34
##  2 gregor's father    24
##  3 gregor's mother    21
##  4 gregor's sister    17
##  5 mother sister      12
##  6 chest drawers       9
##  7 father mother       8
##  8 door gregor         6
##  9 gregor door         6
## 10 door living         4
## # … with 5,889 more rows
```
]

.pull-right[

```r
# Tri-grams
mettri <- metwords %>%
 unnest_tokens(trigram, word, token = "ngrams", n = 3)
mettri %>% count(trigram, sort = TRUE)
```

```
## # A tibble: 6,242 x 2
##    trigram                         n
##    <chr>                       <int>
##  1 gregor's mother sister          6
##  2 chief clerk gregor              3
##  3 chest drawers desk              2
##  4 chief clerk father              2
##  5 chief clerk left                2
##  6 door entrance hall              2
##  7 earn money gregor               2
##  8 entertaining violin playing     2
##  9 front door flat                 2
## 10 gentlemen rented evening        2
## # … with 6,232 more rows
```
…
```r
# Create "units"
metwords <- metwords %>% mutate(section = row_number() %/% 50) %>%
                         filter(section > 0)

# Co-occuring words
metpairs <- metwords %>%
  pairwise_count(word, section, sort = TRUE)
metpairs
```

```
## # A tibble: 203,272 x 3
##    item1    item2        n
##    <chr>    <chr>    <dbl>
##  1 door     gregor      49
##  2 gregor   door        49
##  3 gregor's gregor      48
##  4 gregor   gregor's    48
##  5 father   gregor      47
##  6 sister   gregor      47
##  7 gregor   father      47
##  8 gregor   sister      47
##  9 mother   gregor      43
## 10 gregor   mother      43
## # … with 203,262 more rows
```
…
.pull-right[

```r
# Correlations
# Phi: H0 it is equally likely for either word to appear alone as it is that both of them or neither of them appear

metcors <- metwords %>%
           group_by(word) %>%
           filter(n() >= 20) %>%
           pairwise_cor(word, section, sort = TRUE)
metcors
```

```
## # A tibble: 650 x 3
##    item1    item2    correlation
##    <chr>    <chr>          <dbl>
##  1 clerk    chief          1.000
##  2 chief    clerk          1.000
##  3 mother   gregor's       0.431
##  4 gregor's mother         0.431
##  5 sister   mother         0.425
##  6 mother   sister         0.425
##  7 father   gregor's       0.410
##  8 gregor's father         0.410
##  9 father   mother         0.395
## 10 mother   father         0.395
## # … with 640 more rows
```
…
